<?xml version="1.0" encoding="utf-8"?>

<svg version="1.1" id="Layer_1" xmlns="http://www.w3.org/2000/svg" xmlns:xlink="http://www.w3.org/1999/xlink" x="0px" y="0px"
	 viewBox="0 0 512 512" enable-background="new 0 0 512 512" xml:space="preserve">
<path d="M490.7,0c-21.3,0-42.7,0-53.3,10.7l-85.3,96H21.3L0,138.7l234.7,74.7l-64,85.3h-96l-32,32l64,21.3v32
	c0.7,11.5,10.7,21.3,21.3,21.3h32l21.3,64l32-32v-96l85.3-64L373.3,512l32-21.3V160l96-85.3C512,64,512,42.7,512,21.3
	C512,10.7,501.3,0,490.7,0z"/>
</svg>
